{
  "$schema": "http://json-schema.org/draft-04/schema",
  
  "definitions": {
    "UsernamePasswordCredential": {
      "type": "object",
      "properties": {
        "username": {
          "type": "string"
        },
        "password": {
          "type": "string"
        }
      },
      "required": [ "username", "password" ]
    },
    "Credential": {
      "oneOf": [
        { "$ref": "#/definitions/UsernamePasswordCredential" }
      ]
    }
  }
}