{
  "$schema": "http://json-schema.org/draft-04/schema",
  "definitions": {
    "Error": {
      "type": "object",
      "properties": {
        "code": {
          "type": "integer",
          "description": "An internal error code. Codes < 1000 map to the HTTP status codes."
        },
        "message": {
          "type": "string",
          "description": "A technical message that describes the error."
        },
        "userMessage": {
          "type": "string",
          "description": "A message that can be displayed to the user."
        },
        "moreInfoLink": {
          "type": "string",
          "description": "A web link where more information about that error can be found."
        }
      },
      "required": [ "code", "message" ]
    }
  }
}
