{
  "$schema": "http://json-schema.org/draft-04/schema",
  
  "definitions": {
    "Permission": {
      "type": "object",
      "description": "A permission to access a cell.",
      "properties": {
        "recipient": { "$ref": "resource.json#/definitions/ResourceReference"},
        "accessType": {
          "type": "string",
          "enum": [ "read", "append" ]
        }
      },
      "required": [ "recipient", "type" ]
    }
  }
}